<svg width="100%" height="100%" viewBox="0 0 52 52" fill="currentColor">
  <path d="M39.4333 26L17.9833 39V13L39.4333 26ZM52 26C52 11.7 40.3 0 26 0C11.7 0 0 11.7 0 26C0 40.3 11.7 52 26 52C40.3 52 52 40.3 52 26Z"/>
</svg>
