<svg width="23" height="40" viewBox="0 0 23 40" fill="none">
  <path d="M20.0452 2.33496L2.93726 19.6756L20.0452 37.0162" stroke="white" stroke-width="4.493" stroke-linecap="round" stroke-linejoin="round"/>
</svg>
