<svg width="156" height="68" viewBox="0 0 156 68" fill="none" xmlns="http://www.w3.org/2000/svg">
<path d="M154.44 21.0368V46.6316" stroke="#005CB9" stroke-width="1.321" stroke-linecap="round" stroke-linejoin="round"/>
<path d="M145.4 8.88666V58.682" stroke="#005CB9" stroke-width="1.321" stroke-linecap="round" stroke-linejoin="round"/>
<path d="M136.456 13.6671V54.0013" stroke="#005CB9" stroke-width="1.321" stroke-linecap="round" stroke-linejoin="round"/>
<path d="M127.415 17.4515V50.1172" stroke="#005CB9" stroke-width="1.321" stroke-linecap="round" stroke-linejoin="round"/>
<path d="M118.375 17.4515V50.1172" stroke="#005CB9" stroke-width="1.321" stroke-linecap="round" stroke-linejoin="round"/>
<path d="M109.43 23.6261V43.9426" stroke="#005CB9" stroke-width="1.321" stroke-linecap="round" stroke-linejoin="round"/>
<path d="M100.39 8.88666V58.682" stroke="#005CB9" stroke-width="1.321" stroke-linecap="round" stroke-linejoin="round"/>
<path d="M91.3491 17.4515V50.1172" stroke="#005CB9" stroke-width="1.321" stroke-linecap="round" stroke-linejoin="round"/>
<path d="M82.4048 17.4515V50.1172" stroke="#005CB9" stroke-width="1.321" stroke-linecap="round" stroke-linejoin="round"/>
<path d="M73.3647 8.88666V58.682" stroke="#005CB9" stroke-width="1.321" stroke-linecap="round" stroke-linejoin="round"/>
<path d="M64.3242 17.4515V50.1172" stroke="#005CB9" stroke-width="1.321" stroke-linecap="round" stroke-linejoin="round"/>
<path d="M55.3799 17.4515V50.1172" stroke="#005CB9" stroke-width="1.321" stroke-linecap="round" stroke-linejoin="round"/>
<path d="M46.3394 21.0368V46.6316" stroke="#005CB9" stroke-width="1.321" stroke-linecap="round" stroke-linejoin="round"/>
<path d="M37.395 8.88666V58.682" stroke="#005CB9" stroke-width="1.321" stroke-linecap="round" stroke-linejoin="round"/>
<path d="M28.3545 17.4515V50.1172" stroke="#005CB9" stroke-width="1.321" stroke-linecap="round" stroke-linejoin="round"/>
<path d="M19.314 8.88666V58.682" stroke="#005CB9" stroke-width="1.321" stroke-linecap="round" stroke-linejoin="round"/>
<path d="M10.3696 1.21826V66.3506" stroke="#005CB9" stroke-width="1.321" stroke-linecap="round" stroke-linejoin="round"/>
<path d="M1.3291 8.88666V58.682" stroke="#005CB9" stroke-width="1.321" stroke-linecap="round" stroke-linejoin="round"/>
</svg>
